%YAML 1.1
%TAG !u! tag:unity3d.com,2011:
--- !u!29 &1
OcclusionCullingSettings:
  m_ObjectHideFlags: 0
  serializedVersion: 2
  m_OcclusionBakeSettings:
    smallestOccluder: 5
    smallestHole: 0.25
    backfaceThreshold: 100
  m_SceneGUID: 00000000000000000000000000000000
  m_OcclusionCullingData: {fileID: 0}
--- !u!104 &2
RenderSettings:
  m_ObjectHideFlags: 0
  serializedVersion: 8
  m_Fog: 0
  m_FogColor: {r: 0.5, g: 0.5, b: 0.5, a: 1}
  m_FogMode: 3
  m_FogDensity: 0.01
  m_LinearFogStart: 0
  m_LinearFogEnd: 300
  m_AmbientSkyColor: {r: 0.212, g: 0.227, b: 0.259, a: 1}
  m_AmbientEquatorColor: {r: 0.114, g: 0.125, b: 0.133, a: 1}
  m_AmbientGroundColor: {r: 0.047, g: 0.043, b: 0.035, a: 1}
  m_AmbientIntensity: 1
  m_AmbientMode: 3
  m_SubtractiveShadowColor: {r: 0.42, g: 0.478, b: 0.627, a: 1}
  m_SkyboxMaterial: {fileID: 0}
  m_HaloStrength: 0.5
  m_FlareStrength: 1
  m_FlareFadeSpeed: 3
  m_HaloTexture: {fileID: 0}
  m_SpotCookie: {fileID: 10001, guid: 0000000000000000e000000000000000, type: 0}
  m_DefaultReflectionMode: 0
  m_DefaultReflectionResolution: 128
  m_ReflectionBounces: 1
  m_ReflectionIntensity: 1
  m_CustomReflection: {fileID: 0}
  m_Sun: {fileID: 0}
  m_IndirectSpecularColor: {r: 0, g: 0, b: 0, a: 1}
--- !u!157 &3
LightmapSettings:
  m_ObjectHideFlags: 0
  serializedVersion: 9
  m_GIWorkflowMode: 1
  m_GISettings:
    serializedVersion: 2
    m_BounceScale: 1
    m_IndirectOutputScale: 1
    m_AlbedoBoost: 1
    m_TemporalCoherenceThreshold: 1
    m_EnvironmentLightingMode: 0
    m_EnableBakedLightmaps: 0
    m_EnableRealtimeLightmaps: 0
  m_LightmapEditorSettings:
    serializedVersion: 8
    m_Resolution: 2
    m_BakeResolution: 40
    m_TextureWidth: 1024
    m_TextureHeight: 1024
    m_AO: 0
    m_AOMaxDistance: 1
    m_CompAOExponent: 1
    m_CompAOExponentDirect: 0
    m_Padding: 2
    m_LightmapParameters: {fileID: 0}
    m_LightmapsBakeMode: 1
    m_TextureCompression: 1
    m_FinalGather: 0
    m_FinalGatherFiltering: 1
    m_FinalGatherRayCount: 256
    m_ReflectionCompression: 2
    m_MixedBakeMode: 3
    m_BakeBackend: 0
    m_PVRSampling: 1
    m_PVRDirectSampleCount: 32
    m_PVRSampleCount: 500
    m_PVRBounces: 2
    m_PVRFiltering: 0
    m_PVRFilteringMode: 1
    m_PVRCulling: 1
    m_PVRFilteringGaussRadiusDirect: 1
    m_PVRFilteringGaussRadiusIndirect: 5
    m_PVRFilteringGaussRadiusAO: 2
    m_PVRFilteringAtrousColorSigma: 1
    m_PVRFilteringAtrousNormalSigma: 1
    m_PVRFilteringAtrousPositionSigma: 1
  m_LightingDataAsset: {fileID: 0}
  m_ShadowMaskMode: 2
--- !u!196 &4
NavMeshSettings:
  serializedVersion: 2
  m_ObjectHideFlags: 0
  m_BuildSettings:
    serializedVersion: 2
    agentTypeID: 0
    agentRadius: 0.5
    agentHeight: 2
    agentSlope: 45
    agentClimb: 0.4
    ledgeDropHeight: 0
    maxJumpAcrossDistance: 0
    minRegionArea: 2
    manualCellSize: 0
    cellSize: 0.16666667
    manualTileSize: 0
    tileSize: 256
    accuratePlacement: 0
  m_NavMeshData: {fileID: 0}
--- !u!1001 &922406952
Prefab:
  m_ObjectHideFlags: 0
  serializedVersion: 2
  m_Modification:
    m_TransformParent: {fileID: 1858680717}
    m_Modifications:
    - target: {fileID: 224465576522386304, guid: 4c1f9aa3940e0ea4f841d7ffd9e0f16e,
        type: 2}
      propertyPath: m_LocalPosition.x
      value: 0
      objectReference: {fileID: 0}
    - target: {fileID: 224465576522386304, guid: 4c1f9aa3940e0ea4f841d7ffd9e0f16e,
        type: 2}
      propertyPath: m_LocalPosition.y
      value: 0
      objectReference: {fileID: 0}
    - target: {fileID: 224465576522386304, guid: 4c1f9aa3940e0ea4f841d7ffd9e0f16e,
        type: 2}
      propertyPath: m_LocalPosition.z
      value: 0
      objectReference: {fileID: 0}
    - target: {fileID: 224465576522386304, guid: 4c1f9aa3940e0ea4f841d7ffd9e0f16e,
        type: 2}
      propertyPath: m_LocalRotation.x
      value: -0
      objectReference: {fileID: 0}
    - target: {fileID: 224465576522386304, guid: 4c1f9aa3940e0ea4f841d7ffd9e0f16e,
        type: 2}
      propertyPath: m_LocalRotation.y
      value: -0
      objectReference: {fileID: 0}
    - target: {fileID: 224465576522386304, guid: 4c1f9aa3940e0ea4f841d7ffd9e0f16e,
        type: 2}
      propertyPath: m_LocalRotation.z
      value: -0
      objectReference: {fileID: 0}
    - target: {fileID: 224465576522386304, guid: 4c1f9aa3940e0ea4f841d7ffd9e0f16e,
        type: 2}
      propertyPath: m_LocalRotation.w
      value: 1
      objectReference: {fileID: 0}
    - target: {fileID: 224465576522386304, guid: 4c1f9aa3940e0ea4f841d7ffd9e0f16e,
        type: 2}
      propertyPath: m_RootOrder
      value: 1
      objectReference: {fileID: 0}
    - target: {fileID: 224465576522386304, guid: 4c1f9aa3940e0ea4f841d7ffd9e0f16e,
        type: 2}
      propertyPath: m_AnchoredPosition.x
      value: 504
      objectReference: {fileID: 0}
    - target: {fileID: 224465576522386304, guid: 4c1f9aa3940e0ea4f841d7ffd9e0f16e,
        type: 2}
      propertyPath: m_AnchoredPosition.y
      value: 353.08
      objectReference: {fileID: 0}
    - target: {fileID: 224465576522386304, guid: 4c1f9aa3940e0ea4f841d7ffd9e0f16e,
        type: 2}
      propertyPath: m_SizeDelta.x
      value: 116
      objectReference: {fileID: 0}
    - target: {fileID: 224465576522386304, guid: 4c1f9aa3940e0ea4f841d7ffd9e0f16e,
        type: 2}
      propertyPath: m_SizeDelta.y
      value: 706.17
      objectReference: {fileID: 0}
    - target: {fileID: 224465576522386304, guid: 4c1f9aa3940e0ea4f841d7ffd9e0f16e,
        type: 2}
      propertyPath: m_AnchorMin.x
      value: 0
      objectReference: {fileID: 0}
    - target: {fileID: 224465576522386304, guid: 4c1f9aa3940e0ea4f841d7ffd9e0f16e,
        type: 2}
      propertyPath: m_AnchorMin.y
      value: 0
      objectReference: {fileID: 0}
    - target: {fileID: 224465576522386304, guid: 4c1f9aa3940e0ea4f841d7ffd9e0f16e,
        type: 2}
      propertyPath: m_AnchorMax.x
      value: 0
      objectReference: {fileID: 0}
    - target: {fileID: 224465576522386304, guid: 4c1f9aa3940e0ea4f841d7ffd9e0f16e,
        type: 2}
      propertyPath: m_AnchorMax.y
      value: 0
      objectReference: {fileID: 0}
    - target: {fileID: 224465576522386304, guid: 4c1f9aa3940e0ea4f841d7ffd9e0f16e,
        type: 2}
      propertyPath: m_Pivot.x
      value: 0.5
      objectReference: {fileID: 0}
    - target: {fileID: 224465576522386304, guid: 4c1f9aa3940e0ea4f841d7ffd9e0f16e,
        type: 2}
      propertyPath: m_Pivot.y
      value: 0.5
      objectReference: {fileID: 0}
    - target: {fileID: 224302097732216116, guid: 4c1f9aa3940e0ea4f841d7ffd9e0f16e,
        type: 2}
      propertyPath: m_AnchorMax.x
      value: 1
      objectReference: {fileID: 0}
    - target: {fileID: 224302097732216116, guid: 4c1f9aa3940e0ea4f841d7ffd9e0f16e,
        type: 2}
      propertyPath: m_AnchorMax.y
      value: 0.271
      objectReference: {fileID: 0}
    - target: {fileID: 224293653654136720, guid: 4c1f9aa3940e0ea4f841d7ffd9e0f16e,
        type: 2}
      propertyPath: m_AnchorMin.y
      value: 0.271
      objectReference: {fileID: 0}
    - target: {fileID: 224293653654136720, guid: 4c1f9aa3940e0ea4f841d7ffd9e0f16e,
        type: 2}
      propertyPath: m_AnchorMax.x
      value: 1
      objectReference: {fileID: 0}
    - target: {fileID: 224293653654136720, guid: 4c1f9aa3940e0ea4f841d7ffd9e0f16e,
        type: 2}
      propertyPath: m_AnchorMax.y
      value: 0.271
      objectReference: {fileID: 0}
    m_RemovedComponents: []
  m_ParentPrefab: {fileID: 100100000, guid: 4c1f9aa3940e0ea4f841d7ffd9e0f16e, type: 2}
  m_IsPrefabParent: 0
--- !u!224 &922406953 stripped
RectTransform:
  m_PrefabParentObject: {fileID: 224465576522386304, guid: 4c1f9aa3940e0ea4f841d7ffd9e0f16e,
    type: 2}
  m_PrefabInternal: {fileID: 922406952}
--- !u!1 &1074715531
GameObject:
  m_ObjectHideFlags: 0
  m_PrefabParentObject: {fileID: 0}
  m_PrefabInternal: {fileID: 0}
  serializedVersion: 5
  m_Component:
  - component: {fileID: 1074715534}
  - component: {fileID: 1074715533}
  - component: {fileID: 1074715532}
  m_Layer: 0
  m_Name: EventSystem
  m_TagString: Untagged
  m_Icon: {fileID: 0}
  m_NavMeshLayer: 0
  m_StaticEditorFlags: 0
  m_IsActive: 1
--- !u!114 &1074715532
MonoBehaviour:
  m_ObjectHideFlags: 0
  m_PrefabParentObject: {fileID: 0}
  m_PrefabInternal: {fileID: 0}
  m_GameObject: {fileID: 1074715531}
  m_Enabled: 1
  m_EditorHideFlags: 0
  m_Script: {fileID: 1077351063, guid: f5f67c52d1564df4a8936ccd202a3bd8, type: 3}
  m_Name: 
  m_EditorClassIdentifier: 
  m_HorizontalAxis: Horizontal
  m_VerticalAxis: Vertical
  m_SubmitButton: Submit
  m_CancelButton: Cancel
  m_InputActionsPerSecond: 10
  m_RepeatDelay: 0.5
  m_ForceModuleActive: 0
--- !u!114 &1074715533
MonoBehaviour:
  m_ObjectHideFlags: 0
  m_PrefabParentObject: {fileID: 0}
  m_PrefabInternal: {fileID: 0}
  m_GameObject: {fileID: 1074715531}
  m_Enabled: 1
  m_EditorHideFlags: 0
  m_Script: {fileID: -619905303, guid: f5f67c52d1564df4a8936ccd202a3bd8, type: 3}
  m_Name: 
  m_EditorClassIdentifier: 
  m_FirstSelected: {fileID: 0}
  m_sendNavigationEvents: 1
  m_DragThreshold: 5
--- !u!4 &1074715534
Transform:
  m_ObjectHideFlags: 0
  m_PrefabParentObject: {fileID: 0}
  m_PrefabInternal: {fileID: 0}
  m_GameObject: {fileID: 1074715531}
  m_LocalRotation: {x: 0, y: 0, z: 0, w: 1}
  m_LocalPosition: {x: 0, y: 0, z: 0}
  m_LocalScale: {x: 1, y: 1, z: 1}
  m_Children: []
  m_Father: {fileID: 0}
  m_RootOrder: 2
  m_LocalEulerAnglesHint: {x: 0, y: 0, z: 0}
--- !u!1 &1103701925
GameObject:
  m_ObjectHideFlags: 0
  m_PrefabParentObject: {fileID: 0}
  m_PrefabInternal: {fileID: 0}
  serializedVersion: 5
  m_Component:
  - component: {fileID: 1103701930}
  - component: {fileID: 1103701929}
  - component: {fileID: 1103701928}
  - component: {fileID: 1103701927}
  - component: {fileID: 1103701926}
  m_Layer: 0
  m_Name: Main Camera
  m_TagString: MainCamera
  m_Icon: {fileID: 0}
  m_NavMeshLayer: 0
  m_StaticEditorFlags: 0
  m_IsActive: 1
--- !u!81 &1103701926
AudioListener:
  m_ObjectHideFlags: 0
  m_PrefabParentObject: {fileID: 0}
  m_PrefabInternal: {fileID: 0}
  m_GameObject: {fileID: 1103701925}
  m_Enabled: 1
--- !u!124 &1103701927
Behaviour:
  m_ObjectHideFlags: 0
  m_PrefabParentObject: {fileID: 0}
  m_PrefabInternal: {fileID: 0}
  m_GameObject: {fileID: 1103701925}
  m_Enabled: 1
--- !u!92 &1103701928
Behaviour:
  m_ObjectHideFlags: 0
  m_PrefabParentObject: {fileID: 0}
  m_PrefabInternal: {fileID: 0}
  m_GameObject: {fileID: 1103701925}
  m_Enabled: 1
--- !u!20 &1103701929
Camera:
  m_ObjectHideFlags: 0
  m_PrefabParentObject: {fileID: 0}
  m_PrefabInternal: {fileID: 0}
  m_GameObject: {fileID: 1103701925}
  m_Enabled: 1
  serializedVersion: 2
  m_ClearFlags: 1
  m_BackGroundColor: {r: 0.19215687, g: 0.3019608, b: 0.4745098, a: 0}
  m_NormalizedViewPortRect:
    serializedVersion: 2
    x: 0
    y: 0
    width: 1
    height: 1
  near clip plane: 0.3
  far clip plane: 1000
  field of view: 60
  orthographic: 1
  orthographic size: 5
  m_Depth: -1
  m_CullingMask:
    serializedVersion: 2
    m_Bits: 4294967295
  m_RenderingPath: -1
  m_TargetTexture: {fileID: 0}
  m_TargetDisplay: 0
  m_TargetEye: 3
  m_HDR: 1
  m_AllowMSAA: 1
  m_ForceIntoRT: 0
  m_OcclusionCulling: 1
  m_StereoConvergence: 10
  m_StereoSeparation: 0.022
  m_StereoMirrorMode: 0
--- !u!4 &1103701930
Transform:
  m_ObjectHideFlags: 0
  m_PrefabParentObject: {fileID: 0}
  m_PrefabInternal: {fileID: 0}
  m_GameObject: {fileID: 1103701925}
  m_LocalRotation: {x: 0, y: 0, z: 0, w: 1}
  m_LocalPosition: {x: 0, y: 0, z: -10}
  m_LocalScale: {x: 1, y: 1, z: 1}
  m_Children: []
  m_Father: {fileID: 0}
  m_RootOrder: 0
  m_LocalEulerAnglesHint: {x: 0, y: 0, z: 0}
--- !u!1001 &1824084218
Prefab:
  m_ObjectHideFlags: 0
  serializedVersion: 2
  m_Modification:
    m_TransformParent: {fileID: 1858680717}
    m_Modifications:
    - target: {fileID: 224918786474332894, guid: 89457db1a4240ca459fb5cc9bd40ba58,
        type: 2}
      propertyPath: m_LocalPosition.x
      value: 0
      objectReference: {fileID: 0}
    - target: {fileID: 224918786474332894, guid: 89457db1a4240ca459fb5cc9bd40ba58,
        type: 2}
      propertyPath: m_LocalPosition.y
      value: 0
      objectReference: {fileID: 0}
    - target: {fileID: 224918786474332894, guid: 89457db1a4240ca459fb5cc9bd40ba58,
        type: 2}
      propertyPath: m_LocalPosition.z
      value: 0
      objectReference: {fileID: 0}
    - target: {fileID: 224918786474332894, guid: 89457db1a4240ca459fb5cc9bd40ba58,
        type: 2}
      propertyPath: m_LocalRotation.x
      value: -0
      objectReference: {fileID: 0}
    - target: {fileID: 224918786474332894, guid: 89457db1a4240ca459fb5cc9bd40ba58,
        type: 2}
      propertyPath: m_LocalRotation.y
      value: -0
      objectReference: {fileID: 0}
    - target: {fileID: 224918786474332894, guid: 89457db1a4240ca459fb5cc9bd40ba58,
        type: 2}
      propertyPath: m_LocalRotation.z
      value: -0
      objectReference: {fileID: 0}
    - target: {fileID: 224918786474332894, guid: 89457db1a4240ca459fb5cc9bd40ba58,
        type: 2}
      propertyPath: m_LocalRotation.w
      value: 1
      objectReference: {fileID: 0}
    - target: {fileID: 224918786474332894, guid: 89457db1a4240ca459fb5cc9bd40ba58,
        type: 2}
      propertyPath: m_RootOrder
      value: 3
      objectReference: {fileID: 0}
    - target: {fileID: 224918786474332894, guid: 89457db1a4240ca459fb5cc9bd40ba58,
        type: 2}
      propertyPath: m_AnchoredPosition.x
      value: 855.4
      objectReference: {fileID: 0}
    - target: {fileID: 224918786474332894, guid: 89457db1a4240ca459fb5cc9bd40ba58,
        type: 2}
      propertyPath: m_AnchoredPosition.y
      value: 353.08
      objectReference: {fileID: 0}
    - target: {fileID: 224918786474332894, guid: 89457db1a4240ca459fb5cc9bd40ba58,
        type: 2}
      propertyPath: m_SizeDelta.x
      value: 116
      objectReference: {fileID: 0}
    - target: {fileID: 224918786474332894, guid: 89457db1a4240ca459fb5cc9bd40ba58,
        type: 2}
      propertyPath: m_SizeDelta.y
      value: 706.17
      objectReference: {fileID: 0}
    - target: {fileID: 224918786474332894, guid: 89457db1a4240ca459fb5cc9bd40ba58,
        type: 2}
      propertyPath: m_AnchorMin.x
      value: 0
      objectReference: {fileID: 0}
    - target: {fileID: 224918786474332894, guid: 89457db1a4240ca459fb5cc9bd40ba58,
        type: 2}
      propertyPath: m_AnchorMin.y
      value: 0
      objectReference: {fileID: 0}
    - target: {fileID: 224918786474332894, guid: 89457db1a4240ca459fb5cc9bd40ba58,
        type: 2}
      propertyPath: m_AnchorMax.x
      value: 0
      objectReference: {fileID: 0}
    - target: {fileID: 224918786474332894, guid: 89457db1a4240ca459fb5cc9bd40ba58,
        type: 2}
      propertyPath: m_AnchorMax.y
      value: 0
      objectReference: {fileID: 0}
    - target: {fileID: 224918786474332894, guid: 89457db1a4240ca459fb5cc9bd40ba58,
        type: 2}
      propertyPath: m_Pivot.x
      value: 0.5
      objectReference: {fileID: 0}
    - target: {fileID: 224918786474332894, guid: 89457db1a4240ca459fb5cc9bd40ba58,
        type: 2}
      propertyPath: m_Pivot.y
      value: 0.5
      objectReference: {fileID: 0}
    - target: {fileID: 224233291848562484, guid: 89457db1a4240ca459fb5cc9bd40ba58,
        type: 2}
      propertyPath: m_AnchorMax.x
      value: 1
      objectReference: {fileID: 0}
    - target: {fileID: 224233291848562484, guid: 89457db1a4240ca459fb5cc9bd40ba58,
        type: 2}
      propertyPath: m_AnchorMax.y
      value: 0.271
      objectReference: {fileID: 0}
    - target: {fileID: 224884241883275596, guid: 89457db1a4240ca459fb5cc9bd40ba58,
        type: 2}
      propertyPath: m_AnchorMin.y
      value: 0.271
      objectReference: {fileID: 0}
    - target: {fileID: 224884241883275596, guid: 89457db1a4240ca459fb5cc9bd40ba58,
        type: 2}
      propertyPath: m_AnchorMax.x
      value: 1
      objectReference: {fileID: 0}
    - target: {fileID: 224884241883275596, guid: 89457db1a4240ca459fb5cc9bd40ba58,
        type: 2}
      propertyPath: m_AnchorMax.y
      value: 0.271
      objectReference: {fileID: 0}
    m_RemovedComponents: []
  m_ParentPrefab: {fileID: 100100000, guid: 89457db1a4240ca459fb5cc9bd40ba58, type: 2}
  m_IsPrefabParent: 0
--- !u!224 &1824084219 stripped
RectTransform:
  m_PrefabParentObject: {fileID: 224918786474332894, guid: 89457db1a4240ca459fb5cc9bd40ba58,
    type: 2}
  m_PrefabInternal: {fileID: 1824084218}
--- !u!1 &1858680713
GameObject:
  m_ObjectHideFlags: 0
  m_PrefabParentObject: {fileID: 0}
  m_PrefabInternal: {fileID: 0}
  serializedVersion: 5
  m_Component:
  - component: {fileID: 1858680717}
  - component: {fileID: 1858680716}
  - component: {fileID: 1858680715}
  - component: {fileID: 1858680714}
  m_Layer: 5
  m_Name: Canvas
  m_TagString: Untagged
  m_Icon: {fileID: 0}
  m_NavMeshLayer: 0
  m_StaticEditorFlags: 0
  m_IsActive: 1
--- !u!114 &1858680714
MonoBehaviour:
  m_ObjectHideFlags: 0
  m_PrefabParentObject: {fileID: 0}
  m_PrefabInternal: {fileID: 0}
  m_GameObject: {fileID: 1858680713}
  m_Enabled: 1
  m_EditorHideFlags: 0
  m_Script: {fileID: 1301386320, guid: f5f67c52d1564df4a8936ccd202a3bd8, type: 3}
  m_Name: 
  m_EditorClassIdentifier: 
  m_IgnoreReversedGraphics: 1
  m_BlockingObjects: 0
  m_BlockingMask:
    serializedVersion: 2
    m_Bits: 4294967295
--- !u!114 &1858680715
MonoBehaviour:
  m_ObjectHideFlags: 0
  m_PrefabParentObject: {fileID: 0}
  m_PrefabInternal: {fileID: 0}
  m_GameObject: {fileID: 1858680713}
  m_Enabled: 1
  m_EditorHideFlags: 0
  m_Script: {fileID: 1980459831, guid: f5f67c52d1564df4a8936ccd202a3bd8, type: 3}
  m_Name: 
  m_EditorClassIdentifier: 
  m_UiScaleMode: 1
  m_ReferencePixelsPerUnit: 100
  m_ScaleFactor: 1
  m_ReferenceResolution: {x: 1280, y: 800}
  m_ScreenMatchMode: 0
  m_MatchWidthOrHeight: 0
  m_PhysicalUnit: 3
  m_FallbackScreenDPI: 96
  m_DefaultSpriteDPI: 96
  m_DynamicPixelsPerUnit: 1
--- !u!223 &1858680716
Canvas:
  m_ObjectHideFlags: 0
  m_PrefabParentObject: {fileID: 0}
  m_PrefabInternal: {fileID: 0}
  m_GameObject: {fileID: 1858680713}
  m_Enabled: 1
  serializedVersion: 3
  m_RenderMode: 0
  m_Camera: {fileID: 0}
  m_PlaneDistance: 100
  m_PixelPerfect: 0
  m_ReceivesEvents: 1
  m_OverrideSorting: 0
  m_OverridePixelPerfect: 0
  m_SortingBucketNormalizedSize: 0
  m_AdditionalShaderChannelsFlag: 0
  m_SortingLayerID: 0
  m_SortingOrder: 0
  m_TargetDisplay: 0
--- !u!224 &1858680717
RectTransform:
  m_ObjectHideFlags: 0
  m_PrefabParentObject: {fileID: 0}
  m_PrefabInternal: {fileID: 0}
  m_GameObject: {fileID: 1858680713}
  m_LocalRotation: {x: 0, y: 0, z: 0, w: 1}
  m_LocalPosition: {x: 0, y: 0, z: 0}
  m_LocalScale: {x: 0, y: 0, z: 0}
  m_Children:
  - {fileID: 2084439665}
  - {fileID: 922406953}
  - {fileID: 1859852016}
  - {fileID: 1824084219}
  m_Father: {fileID: 0}
  m_RootOrder: 1
  m_LocalEulerAnglesHint: {x: 0, y: 0, z: 0}
  m_AnchorMin: {x: 0, y: 0}
  m_AnchorMax: {x: 0, y: 0}
  m_AnchoredPosition: {x: 0, y: 0}
  m_SizeDelta: {x: 0, y: 0}
  m_Pivot: {x: 0, y: 0}
--- !u!1001 &1859852015
Prefab:
  m_ObjectHideFlags: 0
  serializedVersion: 2
  m_Modification:
    m_TransformParent: {fileID: 1858680717}
    m_Modifications:
    - target: {fileID: 224391600667939150, guid: 425ea00dab8ebc84caa9c1f555e5958c,
        type: 2}
      propertyPath: m_LocalPosition.x
      value: 0
      objectReference: {fileID: 0}
    - target: {fileID: 224391600667939150, guid: 425ea00dab8ebc84caa9c1f555e5958c,
        type: 2}
      propertyPath: m_LocalPosition.y
      value: 0
      objectReference: {fileID: 0}
    - target: {fileID: 224391600667939150, guid: 425ea00dab8ebc84caa9c1f555e5958c,
        type: 2}
      propertyPath: m_LocalPosition.z
      value: 0
      objectReference: {fileID: 0}
    - target: {fileID: 224391600667939150, guid: 425ea00dab8ebc84caa9c1f555e5958c,
        type: 2}
      propertyPath: m_LocalRotation.x
      value: -0
      objectReference: {fileID: 0}
    - target: {fileID: 224391600667939150, guid: 425ea00dab8ebc84caa9c1f555e5958c,
        type: 2}
      propertyPath: m_LocalRotation.y
      value: -0
      objectReference: {fileID: 0}
    - target: {fileID: 224391600667939150, guid: 425ea00dab8ebc84caa9c1f555e5958c,
        type: 2}
      propertyPath: m_LocalRotation.z
      value: -0
      objectReference: {fileID: 0}
    - target: {fileID: 224391600667939150, guid: 425ea00dab8ebc84caa9c1f555e5958c,
        type: 2}
      propertyPath: m_LocalRotation.w
      value: 1
      objectReference: {fileID: 0}
    - target: {fileID: 224391600667939150, guid: 425ea00dab8ebc84caa9c1f555e5958c,
        type: 2}
      propertyPath: m_RootOrder
      value: 2
      objectReference: {fileID: 0}
    - target: {fileID: 224391600667939150, guid: 425ea00dab8ebc84caa9c1f555e5958c,
        type: 2}
      propertyPath: m_AnchoredPosition.x
      value: 680.5
      objectReference: {fileID: 0}
    - target: {fileID: 224391600667939150, guid: 425ea00dab8ebc84caa9c1f555e5958c,
        type: 2}
      propertyPath: m_AnchoredPosition.y
      value: 353.08
      objectReference: {fileID: 0}
    - target: {fileID: 224391600667939150, guid: 425ea00dab8ebc84caa9c1f555e5958c,
        type: 2}
      propertyPath: m_SizeDelta.x
      value: 116
      objectReference: {fileID: 0}
    - target: {fileID: 224391600667939150, guid: 425ea00dab8ebc84caa9c1f555e5958c,
        type: 2}
      propertyPath: m_SizeDelta.y
      value: 706.17
      objectReference: {fileID: 0}
    - target: {fileID: 224391600667939150, guid: 425ea00dab8ebc84caa9c1f555e5958c,
        type: 2}
      propertyPath: m_AnchorMin.x
      value: 0
      objectReference: {fileID: 0}
    - target: {fileID: 224391600667939150, guid: 425ea00dab8ebc84caa9c1f555e5958c,
        type: 2}
      propertyPath: m_AnchorMin.y
      value: 0
      objectReference: {fileID: 0}
    - target: {fileID: 224391600667939150, guid: 425ea00dab8ebc84caa9c1f555e5958c,
        type: 2}
      propertyPath: m_AnchorMax.x
      value: 0
      objectReference: {fileID: 0}
    - target: {fileID: 224391600667939150, guid: 425ea00dab8ebc84caa9c1f555e5958c,
        type: 2}
      propertyPath: m_AnchorMax.y
      value: 0
      objectReference: {fileID: 0}
    - target: {fileID: 224391600667939150, guid: 425ea00dab8ebc84caa9c1f555e5958c,
        type: 2}
      propertyPath: m_Pivot.x
      value: 0.5
      objectReference: {fileID: 0}
    - target: {fileID: 224391600667939150, guid: 425ea00dab8ebc84caa9c1f555e5958c,
        type: 2}
      propertyPath: m_Pivot.y
      value: 0.5
      objectReference: {fileID: 0}
    - target: {fileID: 224343965358554928, guid: 425ea00dab8ebc84caa9c1f555e5958c,
        type: 2}
      propertyPath: m_AnchorMax.x
      value: 1
      objectReference: {fileID: 0}
    - target: {fileID: 224343965358554928, guid: 425ea00dab8ebc84caa9c1f555e5958c,
        type: 2}
      propertyPath: m_AnchorMax.y
      value: 0.271
      objectReference: {fileID: 0}
    - target: {fileID: 224116101144852156, guid: 425ea00dab8ebc84caa9c1f555e5958c,
        type: 2}
      propertyPath: m_AnchorMin.y
      value: 0.271
      objectReference: {fileID: 0}
    - target: {fileID: 224116101144852156, guid: 425ea00dab8ebc84caa9c1f555e5958c,
        type: 2}
      propertyPath: m_AnchorMax.x
      value: 1
      objectReference: {fileID: 0}
    - target: {fileID: 224116101144852156, guid: 425ea00dab8ebc84caa9c1f555e5958c,
        type: 2}
      propertyPath: m_AnchorMax.y
      value: 0.271
      objectReference: {fileID: 0}
    m_RemovedComponents: []
  m_ParentPrefab: {fileID: 100100000, guid: 425ea00dab8ebc84caa9c1f555e5958c, type: 2}
  m_IsPrefabParent: 0
--- !u!224 &1859852016 stripped
RectTransform:
  m_PrefabParentObject: {fileID: 224391600667939150, guid: 425ea00dab8ebc84caa9c1f555e5958c,
    type: 2}
  m_PrefabInternal: {fileID: 1859852015}
--- !u!1001 &2084439664
Prefab:
  m_ObjectHideFlags: 0
  serializedVersion: 2
  m_Modification:
    m_TransformParent: {fileID: 1858680717}
    m_Modifications:
    - target: {fileID: 224045414924363028, guid: 32983bd23d1c23144980a13e9b6f0fa2,
        type: 2}
      propertyPath: m_LocalPosition.x
      value: 0
      objectReference: {fileID: 0}
    - target: {fileID: 224045414924363028, guid: 32983bd23d1c23144980a13e9b6f0fa2,
        type: 2}
      propertyPath: m_LocalPosition.y
      value: 0
      objectReference: {fileID: 0}
    - target: {fileID: 224045414924363028, guid: 32983bd23d1c23144980a13e9b6f0fa2,
        type: 2}
      propertyPath: m_LocalPosition.z
      value: 0
      objectReference: {fileID: 0}
    - target: {fileID: 224045414924363028, guid: 32983bd23d1c23144980a13e9b6f0fa2,
        type: 2}
      propertyPath: m_LocalRotation.x
      value: -0
      objectReference: {fileID: 0}
    - target: {fileID: 224045414924363028, guid: 32983bd23d1c23144980a13e9b6f0fa2,
        type: 2}
      propertyPath: m_LocalRotation.y
      value: -0
      objectReference: {fileID: 0}
    - target: {fileID: 224045414924363028, guid: 32983bd23d1c23144980a13e9b6f0fa2,
        type: 2}
      propertyPath: m_LocalRotation.z
      value: -0
      objectReference: {fileID: 0}
    - target: {fileID: 224045414924363028, guid: 32983bd23d1c23144980a13e9b6f0fa2,
        type: 2}
      propertyPath: m_LocalRotation.w
      value: 1
      objectReference: {fileID: 0}
    - target: {fileID: 224045414924363028, guid: 32983bd23d1c23144980a13e9b6f0fa2,
        type: 2}
      propertyPath: m_RootOrder
      value: 0
      objectReference: {fileID: 0}
    - target: {fileID: 224045414924363028, guid: 32983bd23d1c23144980a13e9b6f0fa2,
        type: 2}
      propertyPath: m_AnchoredPosition.x
      value: 325.9
      objectReference: {fileID: 0}
    - target: {fileID: 224045414924363028, guid: 32983bd23d1c23144980a13e9b6f0fa2,
        type: 2}
      propertyPath: m_AnchoredPosition.y
      value: 353.08
      objectReference: {fileID: 0}
    - target: {fileID: 224045414924363028, guid: 32983bd23d1c23144980a13e9b6f0fa2,
        type: 2}
      propertyPath: m_SizeDelta.x
      value: 116
      objectReference: {fileID: 0}
    - target: {fileID: 224045414924363028, guid: 32983bd23d1c23144980a13e9b6f0fa2,
        type: 2}
      propertyPath: m_SizeDelta.y
      value: 706.17
      objectReference: {fileID: 0}
    - target: {fileID: 224045414924363028, guid: 32983bd23d1c23144980a13e9b6f0fa2,
        type: 2}
      propertyPath: m_AnchorMin.x
      value: 0
      objectReference: {fileID: 0}
    - target: {fileID: 224045414924363028, guid: 32983bd23d1c23144980a13e9b6f0fa2,
        type: 2}
      propertyPath: m_AnchorMin.y
      value: 0
      objectReference: {fileID: 0}
    - target: {fileID: 224045414924363028, guid: 32983bd23d1c23144980a13e9b6f0fa2,
        type: 2}
      propertyPath: m_AnchorMax.x
      value: 0
      objectReference: {fileID: 0}
    - target: {fileID: 224045414924363028, guid: 32983bd23d1c23144980a13e9b6f0fa2,
        type: 2}
      propertyPath: m_AnchorMax.y
      value: 0
      objectReference: {fileID: 0}
    - target: {fileID: 224045414924363028, guid: 32983bd23d1c23144980a13e9b6f0fa2,
        type: 2}
      propertyPath: m_Pivot.x
      value: 0.5
      objectReference: {fileID: 0}
    - target: {fileID: 224045414924363028, guid: 32983bd23d1c23144980a13e9b6f0fa2,
        type: 2}
      propertyPath: m_Pivot.y
      value: 0.5
      objectReference: {fileID: 0}
    - target: {fileID: 224361446053481868, guid: 32983bd23d1c23144980a13e9b6f0fa2,
        type: 2}
      propertyPath: m_AnchorMax.x
      value: 1
      objectReference: {fileID: 0}
    - target: {fileID: 224361446053481868, guid: 32983bd23d1c23144980a13e9b6f0fa2,
        type: 2}
      propertyPath: m_AnchorMax.y
      value: 0.271
      objectReference: {fileID: 0}
    - target: {fileID: 224481642054718896, guid: 32983bd23d1c23144980a13e9b6f0fa2,
        type: 2}
      propertyPath: m_AnchorMin.y
      value: 0.271
      objectReference: {fileID: 0}
    - target: {fileID: 224481642054718896, guid: 32983bd23d1c23144980a13e9b6f0fa2,
        type: 2}
      propertyPath: m_AnchorMax.x
      value: 1
      objectReference: {fileID: 0}
    - target: {fileID: 224481642054718896, guid: 32983bd23d1c23144980a13e9b6f0fa2,
        type: 2}
      propertyPath: m_AnchorMax.y
      value: 0.271
      objectReference: {fileID: 0}
    m_RemovedComponents: []
  m_ParentPrefab: {fileID: 100100000, guid: 32983bd23d1c23144980a13e9b6f0fa2, type: 2}
  m_IsPrefabParent: 0
--- !u!224 &2084439665 stripped
RectTransform:
  m_PrefabParentObject: {fileID: 224045414924363028, guid: 32983bd23d1c23144980a13e9b6f0fa2,
    type: 2}
  m_PrefabInternal: {fileID: 2084439664}
